\BOOKMARK [0][-]{section*.1}{ README: code's repository of the Gravity Theory Group @ Sapienza}{}% 1
\BOOKMARK [1][-]{section*.2}{Summary}{section*.1}% 2
\BOOKMARK [1][-]{section*.3}{waveform.m}{section*.1}% 3
\BOOKMARK [1][-]{section*.4}{datanalysis.m}{section*.1}% 4
\BOOKMARK [1][-]{section*.5}{stellar.m}{section*.1}% 5
\BOOKMARK [1][-]{section*.6}{ringdown.m}{section*.1}% 6
\BOOKMARK [1][-]{section*.7}{Constants}{section*.1}% 7
\BOOKMARK [1][-]{section*.8}{References}{section*.1}% 8
