\relax 
\providecommand\hyper@newdestlabel[2]{}
\providecommand\HyperFirstAtBeginDocument{\AtBeginDocument}
\HyperFirstAtBeginDocument{\ifx\hyper@anchor\@undefined
\global\let\oldcontentsline\contentsline
\gdef\contentsline#1#2#3#4{\oldcontentsline{#1}{#2}{#3}}
\global\let\oldnewlabel\newlabel
\gdef\newlabel#1#2{\newlabelxx{#1}#2}
\gdef\newlabelxx#1#2#3#4#5#6{\oldnewlabel{#1}{{#2}{#3}}}
\AtEndDocument{\ifx\hyper@anchor\@undefined
\let\contentsline\oldcontentsline
\let\newlabel\oldnewlabel
\fi}
\fi}
\global\let\hyper@last\relax 
\gdef\HyperFirstAtBeginDocument#1{#1}
\providecommand\HyField@AuxAddToFields[1]{}
\providecommand\HyField@AuxAddToCoFields[2]{}
\citation{Bardeen:1972fi}
\citation{Favata:2010ic}
\citation{Healy:2014yta}
\citation{Sathyaprakash:2009xs}
\citation{Ajith:2009bn}
\citation{Yunes:2009ke}
\citation{Khan:2015jqa}
\citation{Vines:2011ud,Bini:2012gu}
\citation{Khan:2015jqa}
\newlabel{FirstPage}{{}{1}{}{Doc-Start}{}}
\@writefile{toc}{\contentsline {title}{ README: code's repository of the Gravity Theory Group @ Sapienza}{1}{section*.1}}
\@writefile{toc}{\contentsline {section}{\numberline {I}Summary}{1}{section*.2}}
\@writefile{toc}{\contentsline {section}{\numberline {II}\texttt  {waveform.m}}{1}{section*.3}}
\citation{Sathyaprakash:2009xs}
\citation{Sathyaprakash:2009xs}
\citation{Vallisneri:2007ev}
\citation{Sathyaprakash:2009xs}
\citation{Hartle:1967he}
\citation{Hinderer:2007mb}
\citation{Read:2008iy}
\citation{Berti:2005gp}
\citation{Berti:2005ys}
\@writefile{toc}{\contentsline {section}{\numberline {III}\texttt  {datanalysis.m}}{2}{section*.4}}
\@writefile{toc}{\contentsline {section}{\numberline {IV}\texttt  {stellar.m}}{2}{section*.5}}
\@writefile{toc}{\contentsline {section}{\numberline {V}\texttt  {ringdown.m}}{2}{section*.6}}
\bibdata{readmeNotes,References}
\bibcite{Bardeen:1972fi}{{1}{}{{}}{{}}}
\bibcite{Favata:2010ic}{{2}{}{{}}{{}}}
\bibcite{Healy:2014yta}{{3}{}{{}}{{}}}
\bibcite{Sathyaprakash:2009xs}{{4}{}{{}}{{}}}
\bibcite{Ajith:2009bn}{{5}{}{{}}{{}}}
\bibcite{Yunes:2009ke}{{6}{}{{}}{{}}}
\bibcite{Khan:2015jqa}{{7}{}{{}}{{}}}
\bibcite{Vines:2011ud}{{8}{}{{}}{{}}}
\bibcite{Bini:2012gu}{{9}{}{{}}{{}}}
\bibcite{Vallisneri:2007ev}{{10}{}{{}}{{}}}
\bibcite{Hartle:1967he}{{11}{}{{}}{{}}}
\bibcite{Hinderer:2007mb}{{12}{}{{}}{{}}}
\bibcite{Read:2008iy}{{13}{}{{}}{{}}}
\bibcite{Berti:2005gp}{{14}{}{{}}{{}}}
\bibcite{Berti:2005ys}{{15}{}{{}}{{}}}
\bibstyle{utphys}
\providecommand\NAT@force@numbers{}\NAT@force@numbers
\@writefile{toc}{\contentsline {section}{\numberline {VI}Constants}{3}{section*.7}}
\@writefile{toc}{\contentsline {section}{\numberline {}References}{3}{section*.8}}
\newlabel{LastBibItem}{{15}{3}{}{section*.8}{}}
\newlabel{LastPage}{{}{3}{}{}{}}
